// Jest Snapshot v1, https://goo.gl/fbAQLP

exports[`Test find educations 1`] = `
Array [
  Object {
    "degree": Object {
      "name": "Postgraduate studies",
      "urn": null,
    },
    "fieldOfStudy": Object {
      "name": "Project Management Metothology and Psychology",
      "urn": null,
    },
    "period": Object {
      "end": Object {
        "month": undefined,
        "year": 2008,
      },
      "start": Object {
        "month": undefined,
        "year": 2007,
      },
    },
    "school": Object {
      "name": "Szkoła Wyższa Psychologii Społecznej w Warszawie",
      "urn": "urn:li:fsd_school:22890",
    },
  },
  Object {
    "degree": Object {
      "name": "Master's degree",
      "urn": null,
    },
    "fieldOfStudy": Object {
      "name": "Information Technology",
      "urn": null,
    },
    "period": Object {
      "end": Object {
        "month": undefined,
        "year": 2003,
      },
      "start": Object {
        "month": undefined,
        "year": 1998,
      },
    },
    "school": Object {
      "name": "Politechnika Radomska im. Kazimierza Pułaskiego",
      "urn": "urn:li:fsd_school:15975",
    },
  },
]
`;

exports[`Test find job positions 1`] = `
Array [
  Object {
    "company": Object {
      "industries": Array [
        Object {
          "name": "Oprogramowanie komputerowe",
          "urn": "urn:li:fsd_industry:4",
        },
      ],
      "name": "BlueSoft",
      "urn": "urn:li:fsd_company:32268",
    },
    "occupations": Array [
      Object {
        "company": Object {
          "name": "BlueSoft",
          "urn": "urn:li:fsd_company:32268",
        },
        "period": Object {
          "end": null,
          "start": Object {
            "month": 3,
            "year": 2019,
          },
        },
        "title": "IT Manager",
      },
      Object {
        "company": Object {
          "name": "Bluesoft",
          "urn": "urn:li:fsd_company:32268",
        },
        "period": Object {
          "end": Object {
            "month": 2,
            "year": 2019,
          },
          "start": Object {
            "month": 9,
            "year": 2016,
          },
        },
        "title": "Project Manager",
      },
    ],
    "period": Object {
      "end": null,
      "start": Object {
        "month": 9,
        "year": 2016,
      },
    },
  },
  Object {
    "company": Object {
      "industries": Array [
        Object {
          "name": "Produkcja urządzeń elektrycznych i elektronicznych",
          "urn": "urn:li:fsd_industry:112",
        },
      ],
      "name": "Hitachi Europe",
      "urn": "urn:li:fsd_company:3843",
    },
    "occupations": Array [
      Object {
        "company": Object {
          "name": "Hitachi Europe",
          "urn": "urn:li:fsd_company:3843",
        },
        "period": Object {
          "end": Object {
            "month": 6,
            "year": 2016,
          },
          "start": Object {
            "month": 4,
            "year": 2015,
          },
        },
        "title": "IT Project Manager",
      },
    ],
    "period": Object {
      "end": Object {
        "month": 6,
        "year": 2016,
      },
      "start": Object {
        "month": 4,
        "year": 2015,
      },
    },
  },
  Object {
    "company": Object {
      "industries": Array [
        Object {
          "name": "Bankowość",
          "urn": "urn:li:fsd_industry:41",
        },
      ],
      "name": "PKO Bank Polski",
      "urn": "urn:li:fsd_company:165483",
    },
    "occupations": Array [
      Object {
        "company": Object {
          "name": "PKO Bank Polski",
          "urn": "urn:li:fsd_company:165483",
        },
        "period": Object {
          "end": Object {
            "month": 3,
            "year": 2015,
          },
          "start": Object {
            "month": 7,
            "year": 2014,
          },
        },
        "title": "Team Leader",
      },
    ],
    "period": Object {
      "end": Object {
        "month": 3,
        "year": 2015,
      },
      "start": Object {
        "month": 7,
        "year": 2014,
      },
    },
  },
  Object {
    "company": Object {
      "industries": Array [
        Object {
          "name": "Usługi finansowe",
          "urn": "urn:li:fsd_industry:43",
        },
      ],
      "name": "Inteligo Financial Services S.A.",
      "urn": "urn:li:fsd_company:16630",
    },
    "occupations": Array [
      Object {
        "company": Object {
          "name": "Inteligo Financial Services S.A.",
          "urn": "urn:li:fsd_company:16630",
        },
        "period": Object {
          "end": Object {
            "month": 6,
            "year": 2014,
          },
          "start": Object {
            "month": undefined,
            "year": 2010,
          },
        },
        "title": "Team Leader of the Department of Business Process Automation",
      },
      Object {
        "company": Object {
          "name": "Inteligo Financial Services S.A.",
          "urn": "urn:li:fsd_company:16630",
        },
        "period": Object {
          "end": Object {
            "month": undefined,
            "year": 2010,
          },
          "start": Object {
            "month": undefined,
            "year": 2007,
          },
        },
        "title": "Expert in Software Development Department",
      },
      Object {
        "company": Object {
          "name": "Inteligo Financial Services S.A.",
          "urn": "urn:li:fsd_company:16630",
        },
        "period": Object {
          "end": Object {
            "month": undefined,
            "year": 2007,
          },
          "start": Object {
            "month": undefined,
            "year": 2003,
          },
        },
        "title": "Senior Systems Development Specialist",
      },
      Object {
        "company": Object {
          "name": "Inteligo Financial Services S.A.",
          "urn": "urn:li:fsd_company:16630",
        },
        "period": Object {
          "end": Object {
            "month": 12,
            "year": 2002,
          },
          "start": Object {
            "month": 12,
            "year": 2001,
          },
        },
        "title": "Analyst - Programmer",
      },
    ],
    "period": Object {
      "end": Object {
        "month": 6,
        "year": 2014,
      },
      "start": Object {
        "month": 12,
        "year": 2001,
      },
    },
  },
  Object {
    "company": Object {
      "industries": Array [],
      "name": "ITEA Polska",
      "urn": null,
    },
    "occupations": Array [
      Object {
        "company": Object {
          "name": "ITEA Polska",
          "urn": undefined,
        },
        "period": Object {
          "end": Object {
            "month": 10,
            "year": 2001,
          },
          "start": Object {
            "month": 9,
            "year": 2000,
          },
        },
        "title": "Application Developer",
      },
    ],
    "period": Object {
      "end": Object {
        "month": 10,
        "year": 2001,
      },
      "start": Object {
        "month": 9,
        "year": 2000,
      },
    },
  },
]
`;

exports[`Test find skills 1`] = `
Array [
  Object {
    "name": "Software Project Management",
  },
  Object {
    "name": "Software Development",
  },
  Object {
    "name": "Business Analysis",
  },
  Object {
    "name": "Requirements Analysis",
  },
  Object {
    "name": "Banking",
  },
  Object {
    "name": "ITIL",
  },
  Object {
    "name": "Requirements Gathering",
  },
  Object {
    "name": "Internet Banking",
  },
  Object {
    "name": "Business Process",
  },
  Object {
    "name": "Databases",
  },
  Object {
    "name": "Systems Analysis",
  },
  Object {
    "name": "SQL",
  },
  Object {
    "name": "Integration",
  },
  Object {
    "name": "BMC Remedy",
  },
  Object {
    "name": "Biometrics",
  },
  Object {
    "name": "Team Management",
  },
  Object {
    "name": "Project Management",
  },
  Object {
    "name": "IT Management",
  },
  Object {
    "name": "Scrum",
  },
  Object {
    "name": "Agile Methodologies",
  },
]
`;
