// Jest Snapshot v1, https://goo.gl/fbAQLP

exports[`Test validate valid payload 1`] = `
"Validation error. Detected 1 constraint violation/s. [
  {
    \\"keyword\\": \\"required\\",
    \\"dataPath\\": \\"\\",
    \\"schemaPath\\": \\"#/required\\",
    \\"params\\": {
      \\"missingProperty\\": \\"prop2\\"
    },
    \\"message\\": \\"should have required property 'prop2'\\"
  }
]"
`;
